audit_id,module,Audit_Type,location_name,Auditor,question_id,question,Auditor_comment,Process,Review_status,Review_Comment
22176,Process Audit,TestDev,Portage,Bakta Salla,1001,Test completed?,test,Production,Open,test_1
22176,Process Audit,TestDev,Portage,Bakta Salla,1002,How did it go?,resr,Production,Close,test_2
