audit_id,module,Audit_Type,location_name,Auditor,question_id,question,Auditor_comment,Process,Review_status,Review_Comment
22293,Process Audit,TestDev,Bangalore,Guest User,1001,Test completed?,,Production,Open,test
22293,Process Audit,TestDev,Bangalore,Guest User,1003,How did it go?,,Production,Close,test2
